[
  {
    "name": "SocialLogin",
    "type": "Script",
    "options": {
      "async": true
    }
  },
  {
    "name": "AccountTrigger",
    "type": "Script",
    "options": {
      "async": true
    }
  },
  {
    "name": "ProjectTrigger",
    "type": "Script",
    "options": {
      "async": true
    }
  },
  {
    "name": "accounts",
    "type": "Table",
    "options": {
      "adapter": "mongodb",
      "fields": {
        "name": {
          "type": "string"
        },
        "email": {
          "type": "string"
        },
        "users": {
          "type": "string",
          "array": true
        },
        "resources": {
          "type": "object",
          "array": true
        },
        "projects": {
          "type": "object",
          "array": true
        }
      },
      "triggers": [
        {"type": "list", "post": true, "entity": "AccountTrigger"},
        {"type": "view", "post": true, "entity": "AccountTrigger"},
        {"type": "save", "pre": true, "entity": "AccountTrigger"},
        {"type": "delete", "post": true, "entity": "AccountTrigger"}
      ]
    }
  },
  {
    "name": "user_resources",
    "type": "Table",
    "options": {
      "adapter": "mongodb",
      "fields": {
        "name": {
          "type": "string"
        },
        "type": {
          "type": "string"
        },
        "amount": {
          "type": "number"
        },
        "status": {
          "type": "string",
          "enum": ["apply", "accept", "done"]
        },
        "account": {
          "type": "referer",
          "ref": "accounts"
        }
      }
    }
  },
  {
    "name": "projects",
    "type": "Table",
    "options": {
      "adapter": "mongodb",
      "fields": {
        "name": {
          "type": "string"
        },
        "description": {
          "type": "string"
        },
        "image": {
          "type": "string"
        },
        "account": {
          "type": "referer",
          "ref": "accounts"
        },
        "resources": {
          "type": "object",
          "array": true
        }
      },
      "triggers": [
        {"type": "list", "post": true, "entity": "ProjectTrigger"},
        {"type": "view", "post": true, "entity": "ProjectTrigger"},
        {"type": "create", "pre": true, "post": true, "entity": "ProjectTrigger"}
      ]
    }
  },
  {
    "name": "project_resources",
    "type": "Table",
    "options": {
      "adapter": "mongodb",
      "fields": {
        "name": {
          "type": "string"
        },
        "type": {
          "type": "string"
        },
        "amount": {
          "type": "number"
        },
        "status": {
          "type": "string",
          "enum": ["open", "close"]
        },
        "project": {
          "type": "string",
          "ref": "projects"
        }
      }
    }
  }
]
